module github.com/lukas-henry/meli-challenge

go 1.18

require (
	github.com/go-redis/redis v6.15.9+incompatible
	github.com/itchyny/base58-go v0.2.0
	github.com/stretchr/testify v1.8.0
	github.com/valyala/fasthttp v1.40.0
)

require (
	go.uber.org/atomic v1.7.0 // indirect
	go.uber.org/multierr v1.6.0 // indirect
	gopkg.in/yaml.v3 v3.0.1 // indirect
)

require (
	github.com/andybalholm/brotli v1.0.4 // indirect
	github.com/davecgh/go-spew v1.1.1 // indirect
	github.com/fasthttp/router v1.4.11
	github.com/klauspost/compress v1.15.0 // indirect
	github.com/onsi/ginkgo v1.16.5 // indirect
	github.com/onsi/gomega v1.20.2 // indirect
	github.com/pmezard/go-difflib v1.0.0 // indirect
	github.com/savsgio/gotils v0.0.0-20220530130905-52f3993e8d6d // indirect
	github.com/valyala/bytebufferpool v1.0.0 // indirect
	go.uber.org/zap v1.23.0
)
